{"count":48,"next":"http://localhost:8001/api/practices/?page=2","previous":null,"results":[{"id":51,"province_detail":{"id":3,"name":"बागमती  प्रदेश"},"district_detail":{"id":31,"province_id":3,"name":"मकवानपुर","province":3},"localbody_detail":{"id":331,"province_id":3,"district_id":31,"name":"कैलाश गाउँपालिका","local_body_type":"गाउँपालिका","website":"","district":31},"programs_detail":[{"id":3,"name":"सुरक्षित मातृत्व कार्यक्रम"}],"source_type_detail":{"id":5,"name":"समाचार"},"files":[],"title":"सुत्केरी र गर्भवती स्याहार गर्न मोबाइल एप्स","description":"<p>मकवानपुरको कैलाश गाउँपालिकाभित्र रहेका गर्भवती र सुत्केरी महिलाको स्याहारमा सहयोग पुर्याउन मोबाइल एप्स प्रविधिको प्रयोग गरिएको छ । कैलाश गाउँपालिकाभित्रका पाँच स्वास्थ्य चौकी मार्फत यस्तो व्यवस्था मिलाइएको हो ।&nbsp;</p>\n<p>उक्त गाउँपालिकाले एप्स निर्माण गरी पाँचवटै स्वास्थ्यचौकीमा एप्ससहितको मोबाइल वितरण पनि गरेको छ । सो एप्समा आफ्नो सेवा क्षेत्रमा रहेका गर्भवती र सुत्केरीबारे जानकारी विवरण स्वास्थ्य चौकीमा कार्यरत प्रसूति सेवा हेर्ने कर्मचारीले अद्यावधिक गर्नेछन् । अद्यावधिक गरिएको विवरण बमोजिम एप्सले समयावधिको आधारमा ‘नोटिफिकेशन’ पठाउने र सोही बमोजिम स्वास्थ्यकर्मीले गर्भवती र सुत्केरीलाई आवश्यक परामर्श र स्याहारका लागि परामर्श दिने व्यवस्था मिलाइएको छ । स्वास्थ्य संस्थाबाट उपलब्ध हुने सेवासुविधालाई प्रविधिसँग जोडेर बिकट र दुर्गम स्थानमा रहेका जनतालाई प्रवाह गर्ने सेवा सहज पार्न गाउँपालिकाले यस्तो प्रविधिको प्रयोग गरेको हो ।</p>\n<p>गाउँपालिकाले चालू आर्थिक वर्षदेखि एउटा स्वास्थ्य संस्थामा बालबालिका जन्म गराउने सङ्ख्या ३० भन्दा बढी भएमा प्रति बालबालिका रु ५०० का दरले कर्मचारीलाई समेत प्रोत्साहन भत्ता दिने व्यवस्था गरेकाे छ । गाउँपालिकाले स्वास्थ्य संस्थामा बच्चा जन्माउनेको सङ्ख्या वृद्धि गराउने स्वास्थ्य संस्थाकाे  कर्मचारीलाई प्रोत्साहन गर्न यस्तो निर्णय गरेको हो ।</p>","source_description":"नेपाली हेल्थ","source_url":"http://www.nepalihealth.com/2018/12/29/35377/","submitter_name":"MOHP","submitter_designation":"","submitter_office":"","submitter_email":"","created_at":"2019-05-27T03:10:33.024000Z","updated_at":"2019-11-11T05:20:39.731000Z","status":"approved","source_type":5,"province":3,"district":31,"localbody":331,"programs":[3]},{"id":49,"province_detail":{"id":5,"name":"लुम्बिनी  प्रदेश"},"district_detail":{"id":47,"province_id":5,"name":"पाल्पा","province":5},"localbody_detail":{"id":485,"province_id":5,"district_id":47,"name":"पूर्वखोला गाउँपालिका","local_body_type":"गाउँपालिका","website":"","district":47},"programs_detail":[{"id":3,"name":"सुरक्षित मातृत्व कार्यक्रम"}],"source_type_detail":{"id":5,"name":"समाचार"},"files":[],"title":"पाल्पाको पूर्वखोला गाँउपालिकामा जिरो होम डेलिभरीको सुरूवात","description":"<p>पाल्पा जिल्लाको पूर्वखोला गाँउपालिकाले वडा स्तरबाटै जिरो होम डेलिभरी अभियान शुरु गरेको छ । गाँउपालिकाले वैशाख २३ मा वडा नं ५ बीरकोटलाई जिरो होम डेलिभरी वडा घोषणा गरेको छ ।</p>\n<p>गाँउपालिकाको अनुसार उक्त वडामा गत आर्थिक बर्षमा ८० जना सुत्केरी भएकोमा ७६ जना स्वास्थ्य संस्थामा र ४ जना स्वास्थ्य संस्था लैजादै गर्दा बाटोमा सुत्केरी भएका थिए । घोषणा कार्यक्रममा प्रदेश सभा सदस्य नारायणप्रसाद आचार्यले उक्त वडा र स्वास्थ्य चौकीलाई जिरो होम डेलिभरीको प्रमाणपत्र दिएका थिए । आगामी आर्थिक बर्ष भित्र गाँउपालिकाका सबै वडामा जिरो होम डेलिभरी गराई सबै वडामा घोषणा कार्यक्रम गर्ने गाउँपालिकाको योजना रहेको छ ।</p>\n<p></p>","source_description":"नेपाली हेल्थ","source_url":"http://www.nepalihealth.com/2019/05/08/38510/","submitter_name":"MOHP","submitter_designation":"","submitter_office":"","submitter_email":"","created_at":"2019-05-27T03:05:26.452000Z","updated_at":"2019-05-27T03:32:59.216000Z","status":"approved","source_type":5,"province":5,"district":47,"localbody":485,"programs":[3]},{"id":53,"province_detail":{"id":7,"name":"सुदूरपश्चिम प्रदेश"},"district_detail":{"id":74,"province_id":7,"name":"बैतडी","province":7},"localbody_detail":{"id":729,"province_id":7,"district_id":74,"name":"डीलासैनी गाउँपालिका","local_body_type":"गाउँपालिका","website":"","district":74},"programs_detail":[{"id":4,"name":"महिला स्वास्थ्य स्वयंम सेविका कार्यक्रम"}],"source_type_detail":{"id":5,"name":"समाचार"},"files":[],"title":"बैतडीका ७० महिला स्वास्थ्य स्वयंसेविकालाई स्ट्रेचर वितरण","description":"<p>बैतडी जिल्लाको डिलाशैनी गाउँपालिकाले गाउँपालिकाभरीका ७० जना महिला स्वास्थ्य स्वयंसेविकालाई स्ट्रेचर प्रदान गरेको छ । गाउँपालिकाका अधिकांश वडाहरू सडकविहीन रहेका हुँदा बिरामीलाई बोकेरै स्वास्थ्य संस्थामा पुर्‍याउनुपर्ने बाध्यता रहेको छ । गर्भवती, सुत्केरी व्याथा लागेका महिला र अन्य बिरामीलाई स्वास्थ्य संस्थामा पुर्‍याउन सजिलो होस् भन्ने उद्देश्य सहित स्ट्रेचर वितरण गरिएको हो ।</p>\n<p>स्ट्रेचर नहुँदा बिरामीलाई भारी बोकेजस्तै बोकेर स्वास्थ्य संस्था लैजानुपर्ने वाध्यता थियो । स्ट्रेचर पाएपछि बिरामीलाई स्वास्थ्य संस्थामा पुर्‍याउने सजिलो हुने महिला स्वास्थ्य स्वयंसेविकाहरूको भनाई छ ।</p>","source_description":"अन्नपूर्ण पाेष्ट","source_url":"http://annapurnapost.com/news/120413","submitter_name":"MOHP","submitter_designation":"","submitter_office":"","submitter_email":"","created_at":"2019-05-27T03:31:06.534000Z","updated_at":"2019-05-27T03:31:28.973000Z","status":"approved","source_type":5,"province":7,"district":74,"localbody":729,"programs":[4]},{"id":52,"province_detail":{"id":2,"name":"मधेश प्रदेश"},"district_detail":{"id":15,"province_id":2,"name":"सप्तरी","province":2},"localbody_detail":{"id":138,"province_id":2,"district_id":15,"name":"राजविराज नगरपालिका","local_body_type":"नगरपालिका","website":"","district":15},"programs_detail":[{"id":3,"name":"सुरक्षित मातृत्व कार्यक्रम"}],"source_type_detail":{"id":5,"name":"समाचार"},"files":[],"title":"राजविराज नगरपालिकामा मातृशिशु प्याकेज कार्यक्रम","description":"<p>सप्तरीको राजविराज नगरपालिकाले बाल र मातृमृत्यु दर घटाउने उद्देश्यले मातृशिशु प्याकेज कार्यक्रम ल्याएको छ । नगरपालिकाले बालमृत्यु दर र मातृमृत्यु दर घटाउने उद्देश्यले चार पटक गर्भ जाँच गराउने, स्वास्थ्य संस्थामै बच्चाको जन्म दिने र ३५ दिन भित्रै जन्म दर्ता गर्नेलाई आमा र बच्चा दुबैलाई हुने एक–एक सेट भोटो सुरुवाल, एक किलो घ्यु, एक किलो गेडागुडी, आइरन चक्की सहित एक हजार पाच सय रुपैयाँ बराबरको मतृशिशु प्याकेज दिने व्यवस्था गरेको छ । नगरपालिकाको अनुसार स्वास्थ्य संस्थामै बच्चालाई जन्म दिनका लागि प्रोत्साहन गर्न तथा मृत्यु दर घटाउने उद्देश्यले सो कार्यक्रम संचालन गरिएको हो ।&nbsp;</p>","source_description":"कान्तीपुर समाचार","source_url":"http://radiokantipur.ekantipur.com/news/2018-07-29/20180729185627.html","submitter_name":"MOHP","submitter_designation":"","submitter_office":"","submitter_email":"","created_at":"2019-05-27T03:13:10.287000Z","updated_at":"2019-05-27T03:13:38.578000Z","status":"approved","source_type":5,"province":2,"district":15,"localbody":138,"programs":[3]},{"id":50,"province_detail":{"id":1,"name":"प्रदेश नम्बर १"},"district_detail":{"id":4,"province_id":1,"name":"झापा","province":1},"localbody_detail":{"id":41,"province_id":1,"district_id":4,"name":"हल्दिवारी गाउँपालिका","local_body_type":"गाउँपालिका","website":"","district":4},"programs_detail":[{"id":26,"name":"बिपन्न नागरिक कोष"}],"source_type_detail":{"id":5,"name":"समाचार"},"files":[],"title":"विपन्नको उपचारमा गाउँपालिका","description":"<p>आर्थिक अभावका कारण उपचार गराउनबाट वञ्चित विपन्न गाउँपालिकावासीलाई हल्दिबारी गाउँपालिकाले आर्थिक सहयोग प्रदान गर्ने व्यवस्था गरेको छ । गाउँपालिकाले ‘जनता उपचार सहायता कोष’ बाट ३२ जना बिरामीलाई सात लाख ४० हजार सहयोग प्रदान गरेको हो । गाउँपालिकाभित्र बसोबास गर्ने विपन्न परिवारलाई उपचारमा सहयोग गर्न सहायता कोष निर्माण गरिएको हो ।</p>\n<p>कोषबाट क्यान्सर, ब्रेन ट्युमर, पक्षाघात, मुटु, कलेजोसम्बन्धी समस्या, मानसिक रोग, आगोले डढेको लगायतका बिरामीलाई रोगको प्रकृति हेरेर न्यूनतम १० हजारदेखि अधिकतम ९० हजारसम्म सहयोग गरिने व्यवस्था गरिएको छ । आर्थिक अभावकै कारण गाउँपालिकावासीहरू रोग पालेर बस्ने अवस्था सृजना हुन नदिन गाउँपालिकाले यस्तो निर्णय गरेको हो ।</p>\n<p>यो सुविधा पाउन भने सरकारी स्वास्थ्य संस्थामा उपचार गराएको हुनुपर्ने छ । उपचार रकम पाउनका लागि अस्पतालले रोग खुलाएको कागजपत्र, सम्बन्धित वडा कार्यालयको सिफारिस र हल्दिबारीवासी भएको खुल्ने परिचयपत्र अनिवार्य रूपमा पेश गर्नु पर्ने छ ।</p>","source_description":"स्वास्थ्य खबर","source_url":"https://swasthyakhabar.com/story/23734","submitter_name":"MOHP","submitter_designation":"","submitter_office":"","submitter_email":"","created_at":"2019-05-27T03:08:08.175000Z","updated_at":"2019-05-27T03:08:52.504000Z","status":"approved","source_type":5,"province":1,"district":4,"localbody":41,"programs":[26]},{"id":48,"province_detail":{"id":7,"name":"सुदूरपश्चिम प्रदेश"},"district_detail":{"id":73,"province_id":7,"name":"डडेलधुरा","province":7},"localbody_detail":{"id":716,"province_id":7,"district_id":73,"name":"भागेश्वर गाउँपालिका","local_body_type":"गाउँपालिका","website":"","district":73},"programs_detail":[{"id":5,"name":"किशोर किशोरी यौन तथा प्रजनन् स्वास्थ्य कार्यक्रम"}],"source_type_detail":{"id":5,"name":"समाचार"},"files":[],"title":"विद्यालयमा सेनेटरी प्याड झिक्न स्मार्ट कार्ड","description":"<p>डडेलधरूराको भागेश्वर गाउँपालिकाले जिल्लामा पहिलो पटक स्मार्ट कार्ड प्रयोग गरी सेनेटरी प्याड झिक्ने मेसिन सञ्चालनमा ल्याएको छ । यो व्यवस्था भागेश्वर गाउँपालिका–४ स्थित सरस्वती माध्यमिक विद्यालय, बगरकोटमा गरिएको छ । यो संगै छात्राहरूलाई महिनावारीको बेलामा विद्यालय जाँदा प्याड बोकिरहुपर्ने वाध्यता हटेको छ र आवश्यक परेको बेलामा सेनेटरी प्याड झिक्न सहज भएको छ ।</p>\n<p>हाललाई गाउँपालिकाले एक सय १० स्मार्ट कार्ड वितरण गरेको छ र अन्य विद्यालयमा पनि सेनेटरी प्याड निकाल्न मिल्ने मेसिन राख्ने योजना बनाएको छ । मेसिन राखे पश्चात महिनावारीका कारण छात्रा तीन/चार दिनसम्म विद्यालय नआउने, आइहाले पनि सेनेटरी प्याड प्रयोग गर्न नपाउने र कक्षा छाडेर बाहिर निस्कनुपर्ने बाध्यता हट्ने अपेक्षा लिईएको छ । ग्रामीण जलस्रोत व्यवस्थापन परियोजनाको सहयोगमा छात्राको महिनावारी स्वच्छता व्यवस्थापनका लागि भागेश्वर गाउँपालिकाले सेनेटरी प्याड मेसिन सञ्चालनमा ल्याएको हो ।</p>","source_description":"नेपाली हेल्थ","source_url":"http://www.nepalihealth.com/2019/05/15/38693/","submitter_name":"MOHP","submitter_designation":"","submitter_office":"","submitter_email":"","created_at":"2019-05-24T03:12:19.640000Z","updated_at":"2019-05-24T03:14:14.781000Z","status":"approved","source_type":5,"province":7,"district":73,"localbody":716,"programs":[5]},{"id":47,"province_detail":{"id":1,"name":"प्रदेश नम्बर १"},"district_detail":{"id":4,"province_id":1,"name":"झापा","province":1},"localbody_detail":{"id":41,"province_id":1,"district_id":4,"name":"हल्दिवारी गाउँपालिका","local_body_type":"गाउँपालिका","website":"","district":4},"programs_detail":[{"id":32,"name":"स्वास्थ्य प्रणाली"}],"source_type_detail":{"id":4,"name":"आधिकारिक वेबसाइट"},"files":[],"title":"हल्दीबारी गाउँपालिकाकाे स्वास्थ्य नीति तथा कार्यक्रम","description":"<p>झापा जिल्लाको  हल्दीबारी गाउँपालिकाले आ.व. २०७५/७६ को नीति तथा कार्यक्रममा स्वास्थ्य क्षेत्रको निम्न विषयवस्तुहरू समेटिएका छन् ।</p>\n<p>१. गाउँपालिकाका पाँचवटै वडाहरुमा कम्तीमा एक/एक सय जना युवाहरू समेटिने गरी युथ जीम क्लबको गठन गर्ने र सरसफाई, स्वास्थ्य र व्यायामसँग सम्बन्धित प्रवद्र्धनात्मक कार्यक्रमहरु सोही क्लब मार्फत आयोजना गर्ने व्यवस्था मिलाउने ।</p>\n<p>२. हल्दीबारी र गोलधाप स्वास्थ्य चौकीमा चौविसै घण्टा प्रसुती सेवा उपलब्ध गराउन बर्थिङ्ग सेण्टर स्थापनाको कार्य अघि बढाउने ।</p>\n<p>३. साठी वर्ष उमेर पूरा भएका विपन्न जेष्ठ नागरिकहरुलाई आफ्नो पायक पर्ने स्वास्थ्य चौकी मार्फत सुगर र प्रेसरको औषधि निःशुल्क वितरण गर्ने व्यवस्था मिलाउने ।</p>\n<p>४. महिला स्वास्थ्य स्वयम् सेविकाहरुलाई प्रेसर नाप्ने तालिम प्रदान गरी आफ्नो कार्यक्षेत्रका ज्येष्ठ नागरिकहरुको नियमितरुपमा निःशुल्क प्रेसर जाँच गर्ने व्यवस्था मिलाउने ।</p>\n<p>५. सामान्य स्वास्थ्य परीक्षणका लागि मोफसल धाउनुपर्ने वाध्यता अन्त्य गर्न गाउँपालिका स्तरीय एक सुविधा सम्पन्न ल्याब स्थापनाकोकार्य अघि बढाउने । साथै आगामी दिनमा सबै वडामा सुविधा सम्पन्न ल्याव स्थापना गर्दै लग्ने ।</p>\n<p>६. कार्यविधिको तर्जुमा गरी अति विपन्न, भिन्न क्षमता भएका व्यक्ति, एकल महिला, ज्येष्ठ नागरिकहरुको निःशुल्क स्वास्थ्य बीमा गर्ने कार्यक्रम ल्याउने ।</p>\n<p>७. “गरौं योग, भगाऔं रोग” नारालाई कार्यान्वयन गर्न स्थानीय योगसँग सम्बन्धित संघ संस्थाहरुलाई परिचालन गरी आवश्यक भौतिक तथा आर्थिक सहयोग गर्ने नीति अवलम्बन गर्ने । यसका साथै आगामी दिनमा विद्यालयस्तरमा समेत योग कक्षाहरु सञ्चालन गर्नका लागि आवश्यक व्यवस्था मिलाउने ।</p>\n<p>८. महिला स्वास्थ्य स्वयम् सेविकाहरुको क्षमता विकास र प्रोत्साहनका लागि विशेष व्यवस्था गर्ने ।</p>\n<p>गाउँपालिकाले सोही नीति अनुरूप नै यस आ.व.को लागि आवश्यक बजेटको पनि व्यवस्था गरेको छ ।</p>\n<p>सबै वडामा युथ जिम क्लब स्थापना तथा व्यवस्थापन गर्न १५ लाख, स्वास्थ्य चौकीमा बर्थिङ सेन्टर सञ्चालन तथा व्यवस्थापन गर्न (सामाग्री तथा जनशक्ति व्यवस्थापन समेत) २० लाख, जनता उपचार कोषमा (विपन्न वर्गका जेष्ठ नागरिकलाई निशुःल्क सुगर र प्रेसरको औषधि वितरण तथा विपन्न परिवारका एकल महिला, भिन्न क्षमता भएका व्यक्ति, मजदुर तथा ज्येष्ठ नागरिकहरुको निःशुल्क स्वास्थ्य बीमा समेत गर्न) ३५ लाख , योग कक्षा सञ्चालन तथा व्यवस्थापन गर्न ५ लाख, महिला स्वास्थ्य स्वयम् सेविकालाई प्रेसर नाप्ने तालिम दिई उपकरण खरिद गरी हस्तान्तरण गर्न २ लाख, जलथल स्वास्थ्य चौकीमा ल्याब सञ्चालनका लागि उपकरण तथा जनशक्ति व्यवस्थापन गर्न १० लाख, निःशुल्क स्वास्थ्य शिविर सञ्चालन गर्न ३ लाख र महामारी रोग नियन्त्रण तथा व्यवस्थापन गर्न ३ लाख बजेट विनियोजन गरिएको छ ।</p>\n<p></p>","source_description":"हल्दीबारी गाउँपालिका","source_url":"http://haldibarimun.gov.np/content/आ-ब-०७५०७६-को-बजेट-तथा-कार्यक्रम-किताब","submitter_name":"MOHP","submitter_designation":"","submitter_office":"","submitter_email":"","created_at":"2019-05-23T18:47:36.373000Z","updated_at":"2019-05-24T02:15:58.717000Z","status":"approved","source_type":4,"province":1,"district":4,"localbody":41,"programs":[32]},{"id":46,"province_detail":{"id":5,"name":"लुम्बिनी  प्रदेश"},"district_detail":{"id":56,"province_id":5,"name":"दाङ","province":5},"localbody_detail":{"id":568,"province_id":5,"district_id":56,"name":"राजपुर गाउँपालिका","local_body_type":"गाउँपालिका","website":"","district":56},"programs_detail":[{"id":3,"name":"सुरक्षित मातृत्व कार्यक्रम"}],"source_type_detail":{"id":5,"name":"समाचार"},"files":[],"title":"राजपुर गाउँपालिकामा सुत्केरीलाई निःशुल्क एम्बुलेन्स सेवा","description":"<p>दाङको  राजपुर गाउँपालिकाले  सुत्के रीलाई एम्बुलेन्स सेवा निःशुल्क गरेको छ । घरमै बच्चा जन्माउने प्रचलन अझै रहेकोले सुत्केरीलाई प्रोत्साहन गर्न स्वास्थ्य संस्थासम्म पुग्नका लागि गाउँपालिकाले निःशुल्क एम्बुलेन्स सेवाको व्यवस्था गरेको हो । स्थानीय स्वास्थ्य चौकीमा सेवा लिन आउने र जानेका साथै बाहिर जिल्लासम्म लैजानका लागि पनि यो सेवा उपलब्ध गराईएको छ । घरमै सुत्केरी हुँदा आमा र बच्चाको स्वास्थ्यमा पर्ने जोखिमलाई न्युनिकरण गर्न गाउँपालिकाले यस्तो कार्यको शुरुवात गरेको हो ।</p>","source_description":"स्वास्थ्य खवरपत्रिका","source_url":"https://swasthyakhabar.com/story/27974","submitter_name":"MOHP","submitter_designation":"","submitter_office":"","submitter_email":"","created_at":"2019-05-23T14:44:32.507000Z","updated_at":"2019-05-23T14:45:32.184000Z","status":"approved","source_type":5,"province":5,"district":56,"localbody":568,"programs":[3]},{"id":45,"province_detail":{"id":1,"name":"प्रदेश नम्बर १"},"district_detail":{"id":11,"province_id":1,"name":"सोलुखुम्बु","province":1},"localbody_detail":{"id":109,"province_id":1,"district_id":11,"name":"माहाकुलुङ गाउँपालिका","local_body_type":"गाउँपालिका","website":"","district":11},"programs_detail":[{"id":3,"name":"सुरक्षित मातृत्व कार्यक्रम"},{"id":4,"name":"महिला स्वास्थ्य स्वयंम सेविका कार्यक्रम"}],"source_type_detail":{"id":5,"name":"समाचार"},"files":[],"title":"स्वास्थ्य संस्थामा प्रसूति गराए, गाउँपालिकाबाट दुई हजार भत्ता","description":"<p>महाकुलुङ गाउँपालिका सोलखुम्बुले मान्यता प्राप्त स्वास्थ्य संस्थामा प्रसूति गराउने आमालाई प्रोत्साहन भत्ता दिने व्यवस्था गरेको छ । आमा र बच्चा दुवैको सुरक्षाका लागि बर्थिङ सेन्टरमा प्रसूति गराउने आमालाई प्रोत्साहन गर्ने उद्देश्यले गत २०७४ पुस २५ गतेदेखि लागू हुने गरी भत्ता दिने निर्णय गरिएको थियो ।</p>\n<p>सरकारले प्रदान गर्दै आएको रु १५०० र गाउँपालिकाको तर्फबाट प्रदान गर्ने रु दुई हजार गरी जम्मा रु ३५०० भत्ता सुत्केरीले बुझेका छन् । यस्तै अन्यत्र प्रेषण गर्नु परेमा सरकारको तर्फबाट रु ५०० र गाउँपालिकाको तर्फबाट रु दुई हजार गरी जम्मा रु २५०० भत्ता पाउने छन् ।</p>\n<p>साविक छेस्काम, बुङ र गुदेल गाविसलाई मिलाएर बनाएको महाकुलुङ गाउँपालिकाको तीन वटा स्वास्थ्य चौकीमध्ये गुदेल स्वास्थ्य चौकीमा मात्र बर्थिङ सेन्टर सञ्चालनमा रहेको छ । साविकको छेस्काम र बुङमा समेत बर्थिङ सेन्टर सञ्चालनका लागि आवश्यक पूर्वाधारको तयारी भईरहेकाे छ ।</p>\n<p>गाउँपालिकाले महिला स्वास्थ्य स्वयंसेविकालाई निःशुल्क स्वास्थ्य बीमाकाे व्यवस्था गरेकाे छ । उक्त गाउँपालिकामा जम्मा २५ जना स्वास्थ्य स्वयंसेविका रहेका छन् । पाँच जनाको परिवारलाई सरकारले स्वास्थ्य स्वयंसेविका भएकाले दिएको छुटपछि प्रिमियम तिर्नुपर्ने रकम रु दुई हजार २५० गाउँपालिकाले तिर्ने भएको हो । यस्तै महिला स्वास्थ्य स्वयंसेविकालाई कामको मूल्यांकनका आधारमा प्रोत्साहन भत्ताबापत एक जनालाई वार्षिक रु १० हजार दिने भन्दै बजेटसमेत विनियोजन गरेको छ ।</p>\n<p></p>","source_description":"दैनिक नेपाल","source_url":"https://www.dainiknepal.com/2018/02/297950.html","submitter_name":"MOHP","submitter_designation":"","submitter_office":"","submitter_email":"","created_at":"2019-05-21T03:04:39.614000Z","updated_at":"2019-05-21T03:05:17.052000Z","status":"approved","source_type":5,"province":1,"district":11,"localbody":109,"programs":[3,4]},{"id":44,"province_detail":{"id":3,"name":"बागमती  प्रदेश"},"district_detail":{"id":35,"province_id":3,"name":"चितवन","province":3},"localbody_detail":{"id":392,"province_id":3,"district_id":35,"name":"इच्छाकामना गाउँपालिका","local_body_type":"गाउँपालिका","website":"","district":35},"programs_detail":[{"id":1,"name":"प्रजनन् तथा मातृ स्वास्थ्य सेवा"}],"source_type_detail":{"id":5,"name":"समाचार"},"files":[],"title":"भ्रुण हत्या कम गर्न स्वास्थ्य संस्थामा छोरी जन्मँदा गाउँपालिकाले रकम सहित बैंक खाता खोल्ने","description":"<p>चितवनको इच्छाकामना गाउँपालिकाले गाउँपालिका भित्रको स्वास्थ्य संस्थामा जन्मिएका छोरीको नाममा रकम सहितको बैंक खाता खोल्ने भएको छ । गाउँपालिकाले एक जना बालिकाको खातामा रु पाँच हजार जम्मा गरी अभिभावकलाई समेत कम्तिमा रु पाँच हजार जम्मा गर्नुपर्ने व्यवस्था गरेको छ ।</p>\n<p>भ्रुण हत्या बढ्न थालेपछि गाँउपालिकाले यस्तो अभियानको शुरुवात गरेको हो । अभिभावकको अवस्था कमजोर रहेमा दातासमेत खोजी रकम जम्मा गराउने गाउँपालिकाले जनाएको छ । गाउँपालिका भित्र रहेका जम्मा चार वटा बर्थिङ सेन्टरमा जन्मिएका छोरीका नाममा खाता खोली यो अभियान शुरूवात गरिएको छ । यी चार वटा बर्थिङ सेन्टरमा गत वर्ष जन्मिएका शिशुमध्ये २७ छोरी र १०० छोरा भएपछि गाउँपालिकाले बाल बचत कार्यक्रम शुरु गरेको हो । हालका लागि गाउँपालिकाभित्रका बर्थिङ सेन्टरमा मात्रै जन्मिएका छोरीको नाममा खाता खोले पनि पछि सो गाउँपालिकाबाट अन्यत्र गएर छोरी जन्मिएमा पनि खाता खोलिदिने गाउँपालिकाको योजना रहेको छ ।</p>","source_description":"रेडियो नेपाल","source_url":"http://radionepal.gov.np/news-details/22499/2019-01-10","submitter_name":"MOHP","submitter_designation":"","submitter_office":"","submitter_email":"","created_at":"2019-05-21T02:53:11.033000Z","updated_at":"2019-05-21T02:53:36.456000Z","status":"approved","source_type":5,"province":3,"district":35,"localbody":392,"programs":[1]}]}